…
draft: false
links:
  - icon_pack: fab
    name: Docs
    url: courses/example1
  - icon_pack: fab
    name: Slides
    url: slides/example
  - icon_pack: fab
    name: Project
    url: project1/internal-project
bibliography: /home/redapemusic35/VimWiki/Exported-Items.bib
---

## # A tibble: 50 x 2
##     line text                                                                   
##    <int> <chr>                                                                  
##  1     1 ""                                                                     
##  2     2 "And wonder who you're married to\n\nWanna say it now, wanna make it c…
##  3     3 "34 was bad, so I just turn to 35\nYeah, I'm a keeper\nI keep digging …
##  4     4 "And you loved me the best you could\nI'm the one who dropped the ball…
##  5     5 "Put some days, put some miles in the rearview\nA few state lines 'twe…
##  6     6 "And words by themselves can't right all the wrongs\n\nIn a world that…
##  7     7 "You and your girl had a fight\nAnd now she's saying goodbye\nShe ran …
##  8     8 "That one kiss, I knew\nThere was nothing I wouldn't do\nJust to give …
##  9     9 "Was the first time you ever scared me\n\nGod knows I don't know\nExac…
## 10    10 "Sun settin' on goodbye\nYeah, it's hard to believe\nIt wasn't me tryi…
## # … with 40 more rows

## # A tibble: 50 x 2
##     line text                                                                   
##    <int> <chr>                                                                  
##  1     1 "Better hit the deck like the card dealer\nMy whole squad's in here, w…
##  2     2 "Yeah (Ayy, ah)\n\nI'm the hood Mona Lisa, break a nigga into pieces\n…
##  3     3 "Two big .40s and a big ass Draco (Two, boom, boom)\nThree more millio…
##  4     4 "Uh, posted (Posted), in front of the trap (Front the trap)\nSelling d…
##  5     5 "(Ayy, bring it, bring it back, bring it back, bring it back)\nOh, yea…
##  6     6 "With a bitch that's shinin', lookin' like the moon\nSaid she wanna pa…
##  7     7 "\nTrap money, ayy\nSnow bunnies, ayy\nTrap money, ayy\nPush start, ay…
##  8     8 "1942, I take you back in that 'Rari\n\nOkay, I pull up, hop out at th…
##  9     9 "I ain't even have to trap no more 'cause I was doing it too fluently\…
## 10    10 "But I'm tired of being tired of being tired\n\nThat part of me done d…
## # … with 40 more rows

## # A tibble: 15,184 x 2
##     line word   
##    <int> <chr>  
##  1     2 and    
##  2     2 wonder 
##  3     2 who    
##  4     2 you're 
##  5     2 married
##  6     2 to     
##  7     2 wanna  
##  8     2 say    
##  9     2 it     
## 10     2 now    
## # … with 15,174 more rows

## # A tibble: 28,432 x 2
##     line word  
##    <int> <chr> 
##  1     1 better
##  2     1 hit   
##  3     1 the   
##  4     1 deck  
##  5     1 like  
##  6     1 the   
##  7     1 card  
##  8     1 dealer
##  9     1 my    
## 10     1 whole 
## # … with 28,422 more rows

## # A tibble: 50 x 4
##     line text                                                 linenumber chapter
##    <int> <chr>                                                     <int>   <int>
##  1     1 ""                                                            1       0
##  2     2 "And wonder who you're married to\n\nWanna say it n…          1       0
##  3     3 "34 was bad, so I just turn to 35\nYeah, I'm a keep…          1       0
##  4     4 "And you loved me the best you could\nI'm the one w…          1       0
##  5     5 "Put some days, put some miles in the rearview\nA f…          1       0
##  6     6 "And words by themselves can't right all the wrongs…          1       0
##  7     7 "You and your girl had a fight\nAnd now she's sayin…          1       0
##  8     8 "That one kiss, I knew\nThere was nothing I wouldn'…          1       0
##  9     9 "Was the first time you ever scared me\n\nGod knows…          1       0
## 10    10 "Sun settin' on goodbye\nYeah, it's hard to believe…          1       0
## # … with 40 more rows

## # A tibble: 50 x 4
##     line text                                                 linenumber chapter
##    <int> <chr>                                                     <int>   <int>
##  1     1 ""                                                            1       0
##  2     2 "And wonder who you're married to\n\nWanna say it n…          1       0
##  3     3 "34 was bad, so I just turn to 35\nYeah, I'm a keep…          1       0
##  4     4 "And you loved me the best you could\nI'm the one w…          1       0
##  5     5 "Put some days, put some miles in the rearview\nA f…          1       0
##  6     6 "And words by themselves can't right all the wrongs…          1       0
##  7     7 "You and your girl had a fight\nAnd now she's sayin…          1       0
##  8     8 "That one kiss, I knew\nThere was nothing I wouldn'…          1       0
##  9     9 "Was the first time you ever scared me\n\nGod knows…          1       0
## 10    10 "Sun settin' on goodbye\nYeah, it's hard to believe…          1       0
## # … with 40 more rows
…
tidy_books <- original_books %>%
  unnest_tokens(word, text)

tidy_books <- tidy_books %>%
  anti_join(stop_words)

## Joining, by = "word"

countrytidy_books <- original_books %>%
  unnest_tokens(word, text)

countrytidy_books

## # A tibble: 725,055 x 4
##    book                linenumber chapter word       
##    <fct>                    <int>   <int> <chr>      
##  1 Sense & Sensibility          1       0 sense      
##  2 Sense & Sensibility          1       0 and        
##  3 Sense & Sensibility          1       0 sensibility
##  4 Sense & Sensibility          3       0 by         
##  5 Sense & Sensibility          3       0 jane       
##  6 Sense & Sensibility          3       0 austen     
##  7 Sense & Sensibility          5       0 1811       
##  8 Sense & Sensibility         10       1 chapter    
##  9 Sense & Sensibility         10       1 1          
## 10 Sense & Sensibility         13       1 the        
## # … with 725,045 more rows

hiphoptidy_books <- original_books2 %>%
  unnest_tokens(word, text)

hiphoptidy_books

## # A tibble: 28,432 x 4
##     line linenumber chapter word  
##    <int>      <int>   <int> <chr> 
##  1     1          1       0 better
##  2     1          1       0 hit   
##  3     1          1       0 the   
##  4     1          1       0 deck  
##  5     1          1       0 like  
##  6     1          1       0 the   
##  7     1          1       0 card  
##  8     1          1       0 dealer
##  9     1          1       0 my    
## 10     1          1       0 whole 
## # … with 28,422 more rows
…
## Joining, by = "word"

data(stop_words)

hiphoptidy_books <- hiphoptidy_books %>%
  anti_join(stop_words)

## Joining, by = "word"

countrytidy_books %>%
  count(word, sort = TRUE)

## # A tibble: 13,914 x 2
##    word       n
##    <chr>  <int>
##  1 miss    1855
##  2 time    1337
##  3 fanny    862
##  4 dear     822
##  5 lady     817
##  6 sir      806
##  7 day      797
##  8 emma     787
##  9 sister   727
## 10 house    699
## # … with 13,904 more rows

hiphoptidy_books %>%
  count(word, sort = TRUE)

## # A tibble: 2,763 x 2
##    word       n
##    <chr>  <int>
##  1 yeah     526
##  2 bitch    161
##  3 nigga    137
##  4 niggas   130
##  5 shit     119
##  6 ayy      116
##  7 em       107
##  8 love      68
##  9 gon       66
## 10 time      63
## # … with 2,753 more rows
…
