…
After cleaning the data considerably, I have two frames of data each of which consists of two columns. The first frame has 1,160 lines of data while the second has 2,733. Each line in the first frame is a tokenized version of all of the lyrics in either the country, first frame, or hip-hop, second frame. A token is merely a word from a lyric while the right column consists of the number of instances of that token in the entire corpus whether hip-hop or country.

## # A tibble: 1,254 x 2
##    word      n
##    <chr> <int>
##  1 ai      127
##  2 love    109
##  3 yeah     88
##  4 girl     57
##  5 wanna    54
##  6 night    51
##  7 heart    49
##  8 hope     46
##  9 time     46
## 10 baby     40
## # … with 1,244 more rows

## # A tibble: 2,804 x 2
##    word       n
##    <chr>  <int>
##  1 yeah     526
##  2 bitch    161
##  3 nigga    137
##  4 niggas   130
##  5 ai       127
##  6 shit     121
##  7 ayy      116
##  8 love      68
##  9 gon       66
## 10 time      63
## # … with 2,794 more rows
…
What I find highly meaningful here, are the stark differences in those words used in each set of data. For instance, while words like “love,” “hope,” “heart,” make for the most used words in the country set, more derogatory and disparaging language is used in the hip-hop set.

More Comparisons

Another way in which we might compare two sets of song lyrics in order to determine their moral content, is by comparing the those words which they use in common. What I mean by this, is that a way to compare the language in two sets of data, is by comparing the frequency of which they use the same words.

To do so, I will compare the language used in Jane Austen’s “Sense and Sensibility,” the Bronte Sister’s “Jane Eyre,” “Wuthering Heights,” “The Tenant of Wildfell Hall,” and “Agnes Grey,” and H.G. Well’s “The Time Machine,” “The War of the Worlds,” “The Invisible Man,” and “The Island of Doctor Moreau.”

Obviously the data sets built from the novels above are quite a bit larger than those of the country and hip-hop data sets. However, the algorithm I use, as I will show, does a very good job, nevertheless in distinguishing between each of these. Yet, for other reasons, what follows next may not be the best comparison made, i.e., we might naturally expect differences in language in this way given that each of these are written in different historical periods. Yet, as I will show, it is still the case that the language used in the country set is more similar to that used in each of the novels.

## # A tibble: 73,422 x 4
##    text                    book                linenumber chapter
##    <chr>                   <fct>                    <int>   <int>
##  1 "SENSE AND SENSIBILITY" Sense & Sensibility          1       0
##  2 ""                      Sense & Sensibility          2       0
##  3 "by Jane Austen"        Sense & Sensibility          3       0
##  4 ""                      Sense & Sensibility          4       0
##  5 "(1811)"                Sense & Sensibility          5       0
##  6 ""                      Sense & Sensibility          6       0
##  7 ""                      Sense & Sensibility          7       0
##  8 ""                      Sense & Sensibility          8       0
##  9 ""                      Sense & Sensibility          9       0
## 10 "CHAPTER 1"             Sense & Sensibility         10       1
## # … with 73,412 more rows

## Joining, by = "word"

## # A tibble: 13,914 x 2
##    word       n
##    <chr>  <int>
##  1 miss    1855
##  2 time    1337
##  3 fanny    862
##  4 dear     822
##  5 lady     817
##  6 sir      806
##  7 day      797
##  8 emma     787
##  9 sister   727
## 10 house    699
## # … with 13,904 more rows
…
## Determining mirror for Project Gutenberg from http://www.gutenberg.org/robot/harvest

## Using mirror http://aleph.gutenberg.org

## Joining, by = "word"

## # A tibble: 11,769 x 2
##    word       n
##    <chr>  <int>
##  1 time     454
##  2 people   302
##  3 door     260
##  4 heard    249
##  5 black    232
##  6 stood    229
##  7 white    222
##  8 hand     218
##  9 kemp     213
## 10 eyes     210
## # … with 11,759 more rows

## Joining, by = "word"

## # A tibble: 23,050 x 2
##    word       n
##    <chr>  <int>
##  1 time    1065
##  2 miss     855
##  3 day      827
##  4 hand     768
##  5 eyes     713
##  6 night    647
##  7 heart    638
##  8 looked   601
##  9 door     592
## 10 half     586
## # … with 23,040 more rows

## # A tibble: 57,818 x 4
##    word        `Jane Austen` author          proportion
##    <chr>               <dbl> <chr>                <dbl>
##  1 a              0.00000919 Bronte Sisters  0.0000319 
##  2 a'most        NA          Bronte Sisters  0.0000159 
##  3 a'n't          0.00000460 Bronte Sisters NA         
##  4 aback         NA          Bronte Sisters  0.00000398
##  5 abaht         NA          Bronte Sisters  0.00000398
##  6 abandon       NA          Bronte Sisters  0.0000319 
##  7 abandoned      0.00000460 Bronte Sisters  0.0000916 
##  8 abandoning    NA          Bronte Sisters  0.00000398
##  9 abandonment   NA          Bronte Sisters  0.0000199 
## 10 abart         NA          Bronte Sisters NA         
## # … with 57,808 more rows
…
## Joining, by = "word"

## # A tibble: 13,914 x 2
##    word       n
##    <chr>  <int>
##  1 miss    1855
##  2 time    1337
##  3 fanny    862
##  4 dear     822
##  5 lady     817
##  6 sir      806
##  7 day      797
##  8 emma     787
##  9 sister   727
## 10 house    699
## # … with 13,904 more rows
…
## # A tibble: 16,119 x 2
##     line word        
##    <int> <chr>       
##  1     2 shelton     
##  2     2 stefani     
##  3     2 nobody      
##  4     2 but         
##  5     2 you.txt     
##  6     3 lambert     
##  7     3 bluebird.txt
##  8     4 mccollum    
##  9     4 pretty      
## 10     4 heart.txt   
## # … with 16,109 more rows

## # A tibble: 29,575 x 2
##     line word          
##    <int> <chr>         
##  1     1 godzilla.txt  
##  2     2 savage.txt    
##  3     3 blueberry     
##  4     3 faygo.txt     
##  5     4 walk          
##  6     4 em            
##  7     4 down.txt      
##  8     5 go            
##  9     5 crazy.txt     
## 10     6 solitaires.txt
## # … with 29,565 more rows

## Joining, by = "word"
## Joining, by = "word"
## Joining, by = "word"

## # A tibble: 13,914 x 2
##    word       n
##    <chr>  <int>
##  1 miss    1855
##  2 time    1337
##  3 fanny    862
##  4 dear     822
##  5 lady     817
##  6 sir      806
##  7 day      797
##  8 emma     787
##  9 sister   727
## 10 house    699
## # … with 13,904 more rows

## # A tibble: 2,804 x 2
##    word       n
##    <chr>  <int>
##  1 yeah     526
##  2 bitch    161
##  3 nigga    137
##  4 niggas   130
##  5 ai       127
##  6 shit     121
##  7 ayy      116
##  8 love      68
##  9 gon       66
## 10 time      63
## # … with 2,794 more rows
…
