…
## # A tibble: 50 x 2
##     line text$doc_id         $text                                              
##    <int> <chr>               <chr>                                              
##  1     1 godzilla.txt        "Better hit the deck like the card dealer\nMy whol
##  2     2 savage.txt          "Yeah (Ayy, ah)\n\nI'm the hood Mona Lisa, break a
##  3     3 blueberry-faygo.txt "Two big .40s and a big ass Draco (Two, boom, boom
##  4     4 walk-em-down.txt    "Uh, posted (Posted), in front of the trap (Front 
##  5     5 go-crazy.txt        "(Ayy, bring it, bring it back, bring it back, bri
##  6     6 solitaires.txt      "With a bitch that's shinin', lookin' like the moo
##  7     7 harlem-shake.txt    "\nTrap money, ayy\nSnow bunnies, ayy\nTrap money,
##  8     8 after-party.txt     "1942, I take you back in that 'Rari\n\nOkay, I pu
##  9     9 posted-with-demons "I ain't even have to trap no more 'cause I was do
## 10    10 emotionally-scarre "But I'm tired of being tired of being tired\n\nTh
## #  with 40 more rows

## # A tibble: 28,432 x 2
##     line word  
##    <int> <chr> 
##  1     1 better
##  2     1 hit   
##  3     1 the   
##  4     1 deck  
##  5     1 like  
##  6     1 the   
##  7     1 card  
##  8     1 dealer
##  9     1 my    
## 10     1 whole 
## #  with 28,422 more rows

## # A tibble: 2,763 x 2
##    word       n
##    <chr>  <int>
##  1 yeah     526
##  2 bitch    161
##  3 nigga    137
##  4 niggas   130
##  5 shit     119
##  6 ayy      116
##  7 em       107
##  8 love      68
##  9 gon       66
## 10 time      63
## #  with 2,753 more rows
…
## # A tibble: 50 x 2
##     line text$doc_id               $text                                        
##    <int> <chr>                     <chr>                                        
##  1     1 ""                        ""                                           
##  2     2 "shelton-stefani-nobody- "And wonder who you're married to\n\nWanna s
##  3     3 "lambert-bluebird.txt"    "34 was bad, so I just turn to 35\nYeah, I'm
##  4     4 "mccollum-pretty-heart.t "And you loved me the best you could\nI'm th
##  5     5 "stell-everywhere-but-on "Put some days, put some miles in the rearvi
##  6     6 "dominion-some-people-do "And words by themselves can't right all the
##  7     7 "rhett-beer-cant-fix.txt" "You and your girl had a fight\nAnd now she'
##  8     8 "janson-done.txt"         "That one kiss, I knew\nThere was nothing I 
##  9     9 "young-lady.txt"          "Was the first time you ever scared me\n\nGo
## 10    10 "pardi-aint-always-the-c "Sun settin' on goodbye\nYeah, it's hard to 
## #  with 40 more rows

## # A tibble: 14,903 x 2
##     line word   
##    <int> <chr>  
##  1     2 and    
##  2     2 wonder 
##  3     2 who    
##  4     2 you're 
##  5     2 married
##  6     2 to     
##  7     2 wanna  
##  8     2 say    
##  9     2 it     
## 10     2 now    
## #  with 14,893 more rows

## # A tibble: 1,177 x 2
##    word      n
##    <chr> <int>
##  1 love    107
##  2 yeah     87
##  3 girl     57
##  4 wanna    54
##  5 night    50
##  6 heart    48
##  7 hope     45
##  8 time     45
##  9 baby     40
## 10 cool     38
## #  with 1,167 more rows
…
## # A tibble: 50 x 2
##     line text$doc_id               $text                                        
##    <int> <chr>                     <chr>                                        
##  1     1 ""                        ""                                           
##  2     2 "shelton-stefani-nobody- "And wonder who you're married to\n\nWanna s
##  3     3 "lambert-bluebird.txt"    "34 was bad, so I just turn to 35\nYeah, I'm
##  4     4 "mccollum-pretty-heart.t "And you loved me the best you could\nI'm th
##  5     5 "stell-everywhere-but-on "Put some days, put some miles in the rearvi
##  6     6 "dominion-some-people-do "And words by themselves can't right all the
##  7     7 "rhett-beer-cant-fix.txt" "You and your girl had a fight\nAnd now she'
##  8     8 "janson-done.txt"         "That one kiss, I knew\nThere was nothing I 
##  9     9 "young-lady.txt"          "Was the first time you ever scared me\n\nGo
## 10    10 "pardi-aint-always-the-c "Sun settin' on goodbye\nYeah, it's hard to 
## #  with 40 more rows

## # A tibble: 14,903 x 2
##     line word   
##    <int> <chr>  
##  1     2 and    
##  2     2 wonder 
##  3     2 who    
##  4     2 you're 
##  5     2 married
##  6     2 to     
##  7     2 wanna  
##  8     2 say    
##  9     2 it     
## 10     2 now    
## #  with 14,893 more rows

## # A tibble: 2,763 x 2
##    word       n
##    <chr>  <int>
##  1 yeah     526
##  2 bitch    161
##  3 nigga    137
##  4 niggas   130
##  5 shit     119
##  6 ayy      116
##  7 em       107
##  8 love      68
##  9 gon       66
## 10 time      63
## #  with 2,753 more rows
…
## # A tibble: 50 x 2
##     line text$doc_id               $text                                        
##    <int> <chr>                     <chr>                                        
##  1     1 ""                        ""                                           
##  2     2 "shelton-stefani-nobody- "And wonder who you're married to\n\nWanna s
##  3     3 "lambert-bluebird.txt"    "34 was bad, so I just turn to 35\nYeah, I'm
##  4     4 "mccollum-pretty-heart.t "And you loved me the best you could\nI'm th
##  5     5 "stell-everywhere-but-on "Put some days, put some miles in the rearvi
##  6     6 "dominion-some-people-do "And words by themselves can't right all the
##  7     7 "rhett-beer-cant-fix.txt" "You and your girl had a fight\nAnd now she'
##  8     8 "janson-done.txt"         "That one kiss, I knew\nThere was nothing I 
##  9     9 "young-lady.txt"          "Was the first time you ever scared me\n\nGo
## 10    10 "pardi-aint-always-the-c "Sun settin' on goodbye\nYeah, it's hard to 
## #  with 40 more rows

## # A tibble: 14,903 x 2
##     line word   
##    <int> <chr>  
##  1     2 and    
##  2     2 wonder 
##  3     2 who    
##  4     2 you're 
##  5     2 married
##  6     2 to     
##  7     2 wanna  
##  8     2 say    
##  9     2 it     
## 10     2 now    
## #  with 14,893 more rows

## # A tibble: 2,763 x 2
##    word       n
##    <chr>  <int>
##  1 yeah     526
##  2 bitch    161
##  3 nigga    137
##  4 niggas   130
##  5 shit     119
##  6 ayy      116
##  7 em       107
##  8 love      68
##  9 gon       66
## 10 time      63
## #  with 2,753 more rows
…
