…
## <<DocumentTermMatrix (documents: 50, terms: 4071)>>
## Non-/sparse entries: 9797/193753
## Sparsity           : 95%
## Maximal term length: 19
## Weighting          : term frequency (tf)

countryterms <- Terms(countrydtm)

hiphopterms <- Terms(hiphopdtm)

tidycountry <- tidy(countrydtm)
tidycountry

## # A tibble: 4,747 x 3
##    document                           term    count
##    <chr>                              <chr>   <dbl>
##  1 shelton-stefani-nobody-but-you.txt 'cause      1
##  2 shelton-stefani-nobody-but-you.txt 'em         1
##  3 shelton-stefani-nobody-but-you.txt (next       1
##  4 shelton-stefani-nobody-but-you.txt (you)       5
##  5 shelton-stefani-nobody-but-you.txt about       4
##  6 shelton-stefani-nobody-but-you.txt ain't       1
##  7 shelton-stefani-nobody-but-you.txt all         3
##  8 shelton-stefani-nobody-but-you.txt and         4
##  9 shelton-stefani-nobody-but-you.txt another     1
## 10 shelton-stefani-nobody-but-you.txt any         3
## # … with 4,737 more rows

tidyhiphop <- tidy(hiphopdtm)
tidyhiphop

## # A tibble: 9,797 x 3
##    document     term         count
##    <chr>        <chr>        <dbl>
##  1 godzilla.txt 'bout            1
##  2 godzilla.txt 'cause           6
##  3 godzilla.txt 'em             12
##  4 godzilla.txt 'em,             1
##  5 godzilla.txt ('xam)           1
##  6 godzilla.txt (ayy)            1
##  7 godzilla.txt (cheesecake)     1
##  8 godzilla.txt (finger),        1
##  9 godzilla.txt (haha)           1
## 10 godzilla.txt (hey,            1
## # … with 9,787 more rows
…
# countrydtm_lda <- LDA(countrydtm, k = 2, control = list(seed = 1234))
# countrydtm_lda

# Tidy per-topic-per-word probabilities

hiphop_topics <- tidy(hiphopdtm_lda, matrix = "beta")

## Warning: `tbl_df()` is deprecated as of dplyr 1.0.0.
## Please use `tibble::as_tibble()` instead.
## This warning is displayed once every 8 hours.
## Call `lifecycle::last_warnings()` to see where this warning was generated.

hiphop_topics

## # A tibble: 8,142 x 3
##    topic term       beta
##    <int> <chr>     <dbl>
##  1     1 'bout  6.74e- 4
##  2     2 'bout  2.59e- 3
##  3     1 'cause 3.34e- 3
##  4     2 'cause 1.53e- 3
##  5     1 'em    6.60e- 3
##  6     2 'em    2.46e- 3
##  7     1 'em,   3.85e- 4
##  8     2 'em,   2.51e- 4
##  9     1 ('xam) 9.63e- 5
## 10     2 ('xam) 6.30e-66
## # … with 8,132 more rows

countrysentiment <- tidycountry %>%
  inner_join(get_sentiments("bing"), by = c(term = "word"))

hiphopsentiment <- tidyhiphop %>%
  inner_join(get_sentiments("bing"), by = c(term = "word"))
hiphopsentiment

## # A tibble: 775 x 4
##    document     term       count sentiment
##    <chr>        <chr>      <dbl> <chr>    
##  1 godzilla.txt admire         1 positive 
##  2 godzilla.txt afraid         2 negative 
##  3 godzilla.txt apocalypse     1 negative 
##  4 godzilla.txt appalled       1 negative 
##  5 godzilla.txt bad            1 negative 
##  6 godzilla.txt better         4 positive 
##  7 godzilla.txt bitch          2 negative 
##  8 godzilla.txt catchy         1 positive 
##  9 godzilla.txt costly         1 negative 
## 10 godzilla.txt dead           1 negative 
## # … with 765 more rows
…
